1_10_0,c0c48f8e59d11873963f821062bdf91a03db3293,ff77c41d50ea3c9589f6ac823ed0d8a5fa0b9e7b
1_10_10,ff77c41d50ea3c9589f6ac823ed0d8a5fa0b9e7b,8874f94d8ece9844ec169d55bdb7c6394f22aac3
1_11_0,8874f94d8ece9844ec169d55bdb7c6394f22aac3,c79437e814a3e9893c7b6f9522af19a81d975e3a
1_11_90,c79437e814a3e9893c7b6f9522af19a81d975e3a,c6a58420dc5ef1c4dde600dcfb559e9025c4e597
1_12_0,c6a58420dc5ef1c4dde600dcfb559e9025c4e597,73b60c52acf8a6355c931b8e6d00f612486c07a4
1_12_10,73b60c52acf8a6355c931b8e6d00f612486c07a4,c87249229b13b4a395b007dcb2102a347fd7f989
1_12_20,c87249229b13b4a395b007dcb2102a347fd7f989,9587fd9c2dbdb03cf2b82d5beb327666f28122f3
1_12_30,9587fd9c2dbdb03cf2b82d5beb327666f28122f3,0e965a8d823f7ada2cf3e3f7ac26893822328c68
