release;commitHash;feature;scatteringDegree;tanglingDegreeAcrossFiles;nestingDepth;linesOfFeatureCode
3.0.1;7c782b24111f252d1e42bc225e197f95fb0e3e90;gtk_widget_get_allocated_width;2.0;0.0;0.0;4.0
3.0.1;7c782b24111f252d1e42bc225e197f95fb0e3e90;gtk_widget_get_allocated_height;2.0;0.0;0.0;4.0
3.0.1;7c782b24111f252d1e42bc225e197f95fb0e3e90;__cplusplus;41.0;0.0;0.0;140.0
3.0.1;7c782b24111f252d1e42bc225e197f95fb0e3e90;_MPS_PRIVATE;3.0;0.0;0.0;62.0
3.0.1;7c782b24111f252d1e42bc225e197f95fb0e3e90;#endif;7.0;0.0;0.0;374.0
3.0.1;7c782b24111f252d1e42bc225e197f95fb0e3e90;__MPS_MATLAB_MODE;1.0;0.0;0.0;2.0
3.0.1;7c782b24111f252d1e42bc225e197f95fb0e3e90;__MPS_NOT_DEFINE_BOOL;1.0;0.0;0.0;3.0
3.0.1;7c782b24111f252d1e42bc225e197f95fb0e3e90;MPS_CORE_H_;1.0;0.0;3.0;23.0
3.0.1;7c782b24111f252d1e42bc225e197f95fb0e3e90;HAVE_CONFIG_H;4.0;0.0;0.0;8.0
3.0.1;7c782b24111f252d1e42bc225e197f95fb0e3e90;__MPS_POLYNOMIAL_H;1.0;0.0;1.0;231.0
3.0.1;7c782b24111f252d1e42bc225e197f95fb0e3e90;SIZE_MAX;1.0;0.0;0.0;2.0
3.0.1;7c782b24111f252d1e42bc225e197f95fb0e3e90;SSIZE_MAX;1.0;0.0;0.0;2.0
3.0.1;7c782b24111f252d1e42bc225e197f95fb0e3e90;HAVE_GETLINE;1.0;0.0;4.0;111.0
3.0.1;7c782b24111f252d1e42bc225e197f95fb0e3e90;DISABLE_DEBUG;18.0;0.0;3.0;78.0
3.0.1;7c782b24111f252d1e42bc225e197f95fb0e3e90;__GCC__;2.0;0.0;0.0;4.0
3.0.1;7c782b24111f252d1e42bc225e197f95fb0e3e90;__WINDOWS;7.0;0.0;0.0;111.0
3.0.1;7c782b24111f252d1e42bc225e197f95fb0e3e90;HAVE_GRAPHICAL_DEBUGGER;12.0;0.0;2.0;176.0
3.0.1;7c782b24111f252d1e42bc225e197f95fb0e3e90;MPS_ITERATION_LOGGER_H_;1.0;0.0;0.0;64.0
3.0.1;7c782b24111f252d1e42bc225e197f95fb0e3e90;POLYNOMIALSOLVER_H;1.0;0.0;0.0;72.0
3.1.0;ab1e66e6877dd83980ba3fb72dd922d03ec37487;SIZE_MAX;1.0;0.0;0.0;2.0
3.1.0;ab1e66e6877dd83980ba3fb72dd922d03ec37487;SSIZE_MAX;1.0;0.0;0.0;2.0
3.1.0;ab1e66e6877dd83980ba3fb72dd922d03ec37487;HAVE_GETLINE;1.0;0.0;4.0;111.0
3.1.0;ab1e66e6877dd83980ba3fb72dd922d03ec37487;DISABLE_DEBUG;18.0;0.0;3.0;78.0
3.1.1;040f8b2b8f78063706962ab927253396364a33b3;__WINDOWS;7.0;0.0;0.0;111.0
3.1.1;040f8b2b8f78063706962ab927253396364a33b3;HAVE_CONFIG_H;4.0;0.0;0.0;8.0
3.1.1;040f8b2b8f78063706962ab927253396364a33b3;HAVE_GRAPHICAL_DEBUGGER;12.0;0.0;2.0;176.0
3.1.1;040f8b2b8f78063706962ab927253396364a33b3;MAINWINDOW_H;1.0;0.0;0.0;39.0
3.1.1;040f8b2b8f78063706962ab927253396364a33b3;POLYNOMIALSOLVER_H;1.0;0.0;0.0;81.0
3.1.1;040f8b2b8f78063706962ab927253396364a33b3;xmpsolve_ROOTSRENDERER_H;1.0;0.0;0.0;53.0
3.1.2;2f3da2c9ecdab058408be009a5236b17a23dcd1b;__cplusplus;43.0;0.0;0.0;148.0
3.1.2;2f3da2c9ecdab058408be009a5236b17a23dcd1b;_MPS_PRIVATE;5.0;0.0;0.0;117.0
3.1.2;2f3da2c9ecdab058408be009a5236b17a23dcd1b;#endif;7.0;0.0;0.0;375.0
3.1.2;2f3da2c9ecdab058408be009a5236b17a23dcd1b;__WINDOWS;11.0;0.0;0.0;120.0
3.1.2;2f3da2c9ecdab058408be009a5236b17a23dcd1b;MPS_DEBUG_H;1.0;0.0;1.0;7.0
3.1.2;2f3da2c9ecdab058408be009a5236b17a23dcd1b;DISABLE_DEBUG;18.0;0.0;3.0;66.0
3.1.2;2f3da2c9ecdab058408be009a5236b17a23dcd1b;NICE_DEBUG;1.0;0.0;1.0;138.0
3.1.2;2f3da2c9ecdab058408be009a5236b17a23dcd1b;MPS_DEBUG;1.0;0.0;0.0;2.0
3.1.2;2f3da2c9ecdab058408be009a5236b17a23dcd1b;__MPS_DEBUG;1.0;0.0;0.0;2.0
3.1.2;2f3da2c9ecdab058408be009a5236b17a23dcd1b;__UNDEF_CPLUSPLUS;1.0;0.0;0.0;2.0
3.1.2;2f3da2c9ecdab058408be009a5236b17a23dcd1b;MPS_INTERFACE_H;1.0;0.0;3.0;221.0
3.1.2;2f3da2c9ecdab058408be009a5236b17a23dcd1b;__MPS_MONOMIAL_MATRIX_POLY_H;1.0;0.0;3.0;99.0
3.1.2;2f3da2c9ecdab058408be009a5236b17a23dcd1b;HAVE_CONFIG_H;7.0;0.0;0.0;14.0
3.1.2;2f3da2c9ecdab058408be009a5236b17a23dcd1b;__MPS_MATLAB_MODE;1.0;0.0;0.0;2.0
3.1.2;2f3da2c9ecdab058408be009a5236b17a23dcd1b;__MPS_NOT_DEFINE_BOOL;1.0;0.0;0.0;3.0
3.1.2;2f3da2c9ecdab058408be009a5236b17a23dcd1b;MPS_CORE_H_;1.0;0.0;3.0;23.0
3.1.2;2f3da2c9ecdab058408be009a5236b17a23dcd1b;isnan;1.0;0.0;0.0;8.0
3.1.2;2f3da2c9ecdab058408be009a5236b17a23dcd1b;isinf;1.0;0.0;0.0;11.0
3.1.2;2f3da2c9ecdab058408be009a5236b17a23dcd1b;log2;3.0;0.0;0.0;6.0
3.1.2;2f3da2c9ecdab058408be009a5236b17a23dcd1b;SIZE_MAX;1.0;0.0;0.0;2.0
3.1.2;2f3da2c9ecdab058408be009a5236b17a23dcd1b;SSIZE_MAX;1.0;0.0;0.0;2.0
3.1.2;2f3da2c9ecdab058408be009a5236b17a23dcd1b;HAVE_GETLINE;1.0;0.0;4.0;111.0
3.1.2;2f3da2c9ecdab058408be009a5236b17a23dcd1b;HAVE_VSNPRINTF;1.0;0.0;0.0;2.0
3.1.2;2f3da2c9ecdab058408be009a5236b17a23dcd1b;vsnprintf;1.0;0.0;1.0;4.0
3.1.2;2f3da2c9ecdab058408be009a5236b17a23dcd1b;MPS_CATCH_FPE;3.0;0.0;0.0;7.0
3.1.2;2f3da2c9ecdab058408be009a5236b17a23dcd1b;__GCC__;2.0;0.0;0.0;4.0
3.1.2;2f3da2c9ecdab058408be009a5236b17a23dcd1b;HAVE_UNISTD_H;1.0;0.0;0.0;2.0
3.1.2;2f3da2c9ecdab058408be009a5236b17a23dcd1b;HAVE_SYSCONF;1.0;0.0;0.0;2.0
3.1.2;2f3da2c9ecdab058408be009a5236b17a23dcd1b;HAVE_GRAPHICAL_DEBUGGER;12.0;0.0;2.0;191.0
3.1.2;2f3da2c9ecdab058408be009a5236b17a23dcd1b;gtk_widget_get_allocated_width;2.0;0.0;0.0;4.0
3.1.2;2f3da2c9ecdab058408be009a5236b17a23dcd1b;gtk_widget_get_allocated_height;2.0;0.0;0.0;4.0
3.1.2;2f3da2c9ecdab058408be009a5236b17a23dcd1b;MPS_ITERATION_LOGGER_H_;1.0;0.0;0.0;66.0
3.1.2;2f3da2c9ecdab058408be009a5236b17a23dcd1b;CHECK_IMPLEMENTATION_H;1.0;0.0;2.0;68.0
3.1.2;2f3da2c9ecdab058408be009a5236b17a23dcd1b;MAINWINDOW_H;1.0;0.0;0.0;62.0
3.1.2;2f3da2c9ecdab058408be009a5236b17a23dcd1b;XMPSOLVE_MONOMIAL_H;1.0;0.0;0.0;115.0
3.1.2;2f3da2c9ecdab058408be009a5236b17a23dcd1b;POLFILEEDITORDIALOG_H;1.0;0.0;0.0;27.0
3.1.2;2f3da2c9ecdab058408be009a5236b17a23dcd1b;POLSYNTAXHIGHLIGHTER_H;1.0;0.0;0.0;19.0
3.1.2;2f3da2c9ecdab058408be009a5236b17a23dcd1b;POLYNOMIALSOLVER_H;1.0;0.0;0.0;94.0
3.1.2;2f3da2c9ecdab058408be009a5236b17a23dcd1b;xmpsolve_ROOT_H;1.0;0.0;0.0;24.0
3.1.2;2f3da2c9ecdab058408be009a5236b17a23dcd1b;XMPSOLVE_ROOTSMODEL_H;1.0;0.0;0.0;50.0
3.1.2;2f3da2c9ecdab058408be009a5236b17a23dcd1b;xmpsolve_ROOTSRENDERER_H;1.0;0.0;0.0;74.0
3.1.4;730ffea3e0acb62bdeea5b34c0f4f7f2da7b5f49;gtk_widget_get_allocated_width;2.0;0.0;0.0;4.0
3.1.4;730ffea3e0acb62bdeea5b34c0f4f7f2da7b5f49;gtk_widget_get_allocated_height;2.0;0.0;0.0;4.0
3.1.4;730ffea3e0acb62bdeea5b34c0f4f7f2da7b5f49;_MPS_OCTAVE_SUPPORT_H__;1.0;0.0;0.0;30.0
3.1.4;730ffea3e0acb62bdeea5b34c0f4f7f2da7b5f49;_MPS_PRIVATE;5.0;0.0;1.0;152.0
3.1.4;730ffea3e0acb62bdeea5b34c0f4f7f2da7b5f49;MPS_CHEBYSHEV_H_;1.0;0.0;0.0;104.0
3.1.4;730ffea3e0acb62bdeea5b34c0f4f7f2da7b5f49;__cplusplus;27.0;0.0;0.0;617.0
3.1.4;730ffea3e0acb62bdeea5b34c0f4f7f2da7b5f49;#endif;3.0;0.0;0.0;206.0
3.1.4;730ffea3e0acb62bdeea5b34c0f4f7f2da7b5f49;__WINDOWS;11.0;0.0;0.0;119.0
3.1.4;730ffea3e0acb62bdeea5b34c0f4f7f2da7b5f49;MPS_DEBUG_H_;1.0;0.0;1.0;7.0
3.1.4;730ffea3e0acb62bdeea5b34c0f4f7f2da7b5f49;DISABLE_DEBUG;30.0;0.0;3.0;154.0
3.1.4;730ffea3e0acb62bdeea5b34c0f4f7f2da7b5f49;NICE_DEBUG;3.0;0.0;1.0;151.0
3.1.4;730ffea3e0acb62bdeea5b34c0f4f7f2da7b5f49;MPS_DEBUG;1.0;0.0;0.0;2.0
3.1.4;730ffea3e0acb62bdeea5b34c0f4f7f2da7b5f49;__MPS_DEBUG;1.0;0.0;0.0;2.0
3.1.4;730ffea3e0acb62bdeea5b34c0f4f7f2da7b5f49;mpz_swap;2.0;0.0;0.0;13.0
3.1.4;730ffea3e0acb62bdeea5b34c0f4f7f2da7b5f49;mpz_tstbit;2.0;0.0;0.0;18.0
3.1.4;730ffea3e0acb62bdeea5b34c0f4f7f2da7b5f49;mpq_swap;2.0;0.0;0.0;13.0
3.1.4;730ffea3e0acb62bdeea5b34c0f4f7f2da7b5f49;mpq_out_str;2.0;0.0;0.0;10.0
3.1.4;730ffea3e0acb62bdeea5b34c0f4f7f2da7b5f49;mpf_swap;2.0;0.0;0.0;13.0
3.1.4;730ffea3e0acb62bdeea5b34c0f4f7f2da7b5f49;mpf_pow_ui;2.0;0.0;0.0;29.0
3.1.4;730ffea3e0acb62bdeea5b34c0f4f7f2da7b5f49;__GMPTOOLS_H__;1.0;0.0;8.0;132.0
3.1.4;730ffea3e0acb62bdeea5b34c0f4f7f2da7b5f49;__UNDEF_CPLUSPLUS;1.0;0.0;0.0;2.0
3.1.4;730ffea3e0acb62bdeea5b34c0f4f7f2da7b5f49;MPS_INTERFACE_H_;1.0;0.0;3.0;221.0
3.1.4;730ffea3e0acb62bdeea5b34c0f4f7f2da7b5f49;MPS_MATRIX_H_;1.0;0.0;0.0;6.0
3.1.4;730ffea3e0acb62bdeea5b34c0f4f7f2da7b5f49;MPS_MONOMIAL_MATRIX_POLY_H_;1.0;0.0;3.0;226.0
3.1.4;730ffea3e0acb62bdeea5b34c0f4f7f2da7b5f49;__MPC_H__;1.0;0.0;2.0;165.0
3.1.4;730ffea3e0acb62bdeea5b34c0f4f7f2da7b5f49;HAVE_CONFIG_H;10.0;0.0;0.0;20.0
3.1.4;730ffea3e0acb62bdeea5b34c0f4f7f2da7b5f49;__MPS_MATLAB_MODE;1.0;0.0;0.0;2.0
3.1.4;730ffea3e0acb62bdeea5b34c0f4f7f2da7b5f49;MPS_PUBLISH_PRIVATE_METHODS;1.0;0.0;0.0;2.0
3.1.4;730ffea3e0acb62bdeea5b34c0f4f7f2da7b5f49;HAVE_HIDDEN_VISIBILITY_ATTRIBUTE;1.0;0.0;0.0;5.0
3.1.4;730ffea3e0acb62bdeea5b34c0f4f7f2da7b5f49;MPS_CORE_H_;1.0;0.0;4.0;17.0
3.1.4;730ffea3e0acb62bdeea5b34c0f4f7f2da7b5f49;getline;2.0;0.0;0.0;6.0
3.1.4;730ffea3e0acb62bdeea5b34c0f4f7f2da7b5f49;MPS_MT_TYPES_;1.0;0.0;1.0;36.0
3.1.4;730ffea3e0acb62bdeea5b34c0f4f7f2da7b5f49;MPS_NROOTS_POLYNOMIAL_H_;1.0;0.0;1.0;38.0
3.1.4;730ffea3e0acb62bdeea5b34c0f4f7f2da7b5f49;MPS_PARSER_H_;1.0;0.0;0.0;15.0
3.1.4;730ffea3e0acb62bdeea5b34c0f4f7f2da7b5f49;MPS_POLYNOMIAL_H_;1.0;0.0;4.0;383.0
3.1.4;730ffea3e0acb62bdeea5b34c0f4f7f2da7b5f49;MPS_ABERTH_H_;1.0;0.0;0.0;17.0
3.1.4;730ffea3e0acb62bdeea5b34c0f4f7f2da7b5f49;MPS_ALGORITHMS_H_;1.0;0.0;0.0;15.0
3.1.4;730ffea3e0acb62bdeea5b34c0f4f7f2da7b5f49;MPS_CLUSTER_H_;1.0;0.0;0.0;126.0
3.1.4;730ffea3e0acb62bdeea5b34c0f4f7f2da7b5f49;MPS_CONVEX_H_;1.0;0.0;0.0;58.0
3.1.4;730ffea3e0acb62bdeea5b34c0f4f7f2da7b5f49;MPS_DATA_H_;1.0;0.0;0.0;23.0
3.1.4;730ffea3e0acb62bdeea5b34c0f4f7f2da7b5f49;MPS_FORMAL_MONOMIAL_H_;1.0;0.0;1.0;136.0
3.1.4;730ffea3e0acb62bdeea5b34c0f4f7f2da7b5f49;MPS_FORMAL_POLYNOMIAL_H_;1.0;0.0;1.0;146.0
3.1.4;730ffea3e0acb62bdeea5b34c0f4f7f2da7b5f49;MPS_HESSENBERG_DETERMINANT_H_;1.0;0.0;0.0;24.0
3.1.4;730ffea3e0acb62bdeea5b34c0f4f7f2da7b5f49;MPS_HORNER_H_;1.0;0.0;0.0;25.0
3.1.4;730ffea3e0acb62bdeea5b34c0f4f7f2da7b5f49;MPS_IMPROVE_H_;1.0;0.0;0.0;11.0
3.1.4;730ffea3e0acb62bdeea5b34c0f4f7f2da7b5f49;MPS_INPUT_BUFFER_H_;1.0;0.0;0.0;91.0
3.1.4;730ffea3e0acb62bdeea5b34c0f4f7f2da7b5f49;MPS_INPUT_OUTPUT_H_;1.0;0.0;0.0;31.0
3.1.4;730ffea3e0acb62bdeea5b34c0f4f7f2da7b5f49;MPS_JACOBI_ABERTH_H_;1.0;0.0;0.0;13.0
3.1.4;730ffea3e0acb62bdeea5b34c0f4f7f2da7b5f49;MPS_LIST_H_;1.0;0.0;0.0;73.0
3.1.4;730ffea3e0acb62bdeea5b34c0f4f7f2da7b5f49;MPS_MANDELBROT_USER_H_;1.0;0.0;0.0;14.0
3.1.4;730ffea3e0acb62bdeea5b34c0f4f7f2da7b5f49;MPS_NEWTON_H_;1.0;0.0;0.0;14.0
3.1.4;730ffea3e0acb62bdeea5b34c0f4f7f2da7b5f49;MPS_OPTIONS_H_;1.0;0.0;0.0;222.0
3.1.4;730ffea3e0acb62bdeea5b34c0f4f7f2da7b5f49;MPS_RADII_H_;1.0;0.0;0.0;17.0
3.1.4;730ffea3e0acb62bdeea5b34c0f4f7f2da7b5f49;MPS_SECULAR_EVALUATION_H_;1.0;0.0;0.0;20.0
3.1.4;730ffea3e0acb62bdeea5b34c0f4f7f2da7b5f49;MPS_SECULAR_REGENERATION_H_;1.0;0.0;0.0;10.0
3.1.4;730ffea3e0acb62bdeea5b34c0f4f7f2da7b5f49;MPS_SOLVE_H_;1.0;0.0;0.0;34.0
3.1.4;730ffea3e0acb62bdeea5b34c0f4f7f2da7b5f49;MPS_SORT_H_;1.0;0.0;0.0;11.0
3.1.4;730ffea3e0acb62bdeea5b34c0f4f7f2da7b5f49;MPS_STARTING_CONFIGURATION_H_;1.0;0.0;0.0;63.0
3.1.4;730ffea3e0acb62bdeea5b34c0f4f7f2da7b5f49;MPS_STARTING_H_;1.0;0.0;0.0;34.0
3.1.4;730ffea3e0acb62bdeea5b34c0f4f7f2da7b5f49;MPS_ABSTRACT_INPUT_STREAM_H_;1.0;0.0;1.0;75.0
3.1.4;730ffea3e0acb62bdeea5b34c0f4f7f2da7b5f49;MPS_FILE_INPUT_STREAM_H_;1.0;0.0;1.0;85.0
3.1.4;730ffea3e0acb62bdeea5b34c0f4f7f2da7b5f49;MPS_MEMORY_FILE_STREAM_H_;1.0;0.0;1.0;93.0
3.1.4;730ffea3e0acb62bdeea5b34c0f4f7f2da7b5f49;MPS_THREADING_H_;1.0;0.0;0.0;399.0
3.1.4;730ffea3e0acb62bdeea5b34c0f4f7f2da7b5f49;MPS_TOOLS_H_;1.0;0.0;0.0;58.0
3.1.4;730ffea3e0acb62bdeea5b34c0f4f7f2da7b5f49;MPS_TOUCH_H_;1.0;0.0;0.0;24.0
3.1.4;730ffea3e0acb62bdeea5b34c0f4f7f2da7b5f49;HAVE_STRNDUP;2.0;0.0;0.0;21.0
3.1.4;730ffea3e0acb62bdeea5b34c0f4f7f2da7b5f49;_MPS_UTILS_H;1.0;0.0;1.0;23.0
3.1.4;730ffea3e0acb62bdeea5b34c0f4f7f2da7b5f49;MPS_REGENERATION_DRIVER_H_;1.0;0.0;0.0;47.0
3.1.4;730ffea3e0acb62bdeea5b34c0f4f7f2da7b5f49;__MPS_NOT_DEFINE_BOOL;1.0;0.0;0.0;3.0
3.1.4;730ffea3e0acb62bdeea5b34c0f4f7f2da7b5f49;MPS_TYPES_H_;1.0;0.0;1.0;15.0
3.1.4;730ffea3e0acb62bdeea5b34c0f4f7f2da7b5f49;isnan;1.0;0.0;0.0;17.0
3.1.4;730ffea3e0acb62bdeea5b34c0f4f7f2da7b5f49;isinf;1.0;0.0;0.0;17.0
3.1.4;730ffea3e0acb62bdeea5b34c0f4f7f2da7b5f49;log2;3.0;0.0;0.0;6.0
3.1.4;730ffea3e0acb62bdeea5b34c0f4f7f2da7b5f49;HAVE_FMEMOPEN;1.0;0.0;0.0;4.0
3.1.4;730ffea3e0acb62bdeea5b34c0f4f7f2da7b5f49;MPS_CATCH_FPE;3.0;0.0;0.0;7.0
3.1.4;730ffea3e0acb62bdeea5b34c0f4f7f2da7b5f49;RAND_SOURCE;1.0;0.0;0.0;2.0
3.1.4;730ffea3e0acb62bdeea5b34c0f4f7f2da7b5f49;RAND_VAL;1.0;0.0;0.0;2.0
3.1.4;730ffea3e0acb62bdeea5b34c0f4f7f2da7b5f49;MPS_USE_BUILTIN_COMPLEX;2.0;0.0;0.0;467.0
3.1.4;730ffea3e0acb62bdeea5b34c0f4f7f2da7b5f49;__GCC__;2.0;0.0;0.0;4.0
3.1.4;730ffea3e0acb62bdeea5b34c0f4f7f2da7b5f49;SIZE_MAX;1.0;0.0;0.0;2.0
3.1.4;730ffea3e0acb62bdeea5b34c0f4f7f2da7b5f49;SSIZE_MAX;1.0;0.0;0.0;2.0
3.1.4;730ffea3e0acb62bdeea5b34c0f4f7f2da7b5f49;HAVE_GETLINE;1.0;0.0;4.0;112.0
3.1.4;730ffea3e0acb62bdeea5b34c0f4f7f2da7b5f49;HAVE_VSNPRINTF;1.0;0.0;0.0;2.0
3.1.4;730ffea3e0acb62bdeea5b34c0f4f7f2da7b5f49;vsnprintf;1.0;0.0;1.0;4.0
3.1.4;730ffea3e0acb62bdeea5b34c0f4f7f2da7b5f49;HAVE_UNISTD_H;1.0;0.0;0.0;2.0
3.1.4;730ffea3e0acb62bdeea5b34c0f4f7f2da7b5f49;HAVE_SYSCONF;1.0;0.0;0.0;2.0
3.1.4;730ffea3e0acb62bdeea5b34c0f4f7f2da7b5f49;HAVE_GRAPHICAL_DEBUGGER;12.0;0.0;2.0;193.0
3.1.4;730ffea3e0acb62bdeea5b34c0f4f7f2da7b5f49;MPS_ITERATION_LOGGER_H_;1.0;0.0;0.0;76.0
3.1.4;730ffea3e0acb62bdeea5b34c0f4f7f2da7b5f49;CHECK_IMPLEMENTATION_H;1.0;0.0;2.0;64.0
3.1.4;730ffea3e0acb62bdeea5b34c0f4f7f2da7b5f49;MPS_USE_QML;4.0;0.0;0.0;9.0
3.1.4;730ffea3e0acb62bdeea5b34c0f4f7f2da7b5f49;XMPSOLVE_MAINQMLVIEW_H;1.0;0.0;0.0;55.0
3.1.4;730ffea3e0acb62bdeea5b34c0f4f7f2da7b5f49;MAINWINDOW_H;1.0;0.0;0.0;105.0
3.1.4;730ffea3e0acb62bdeea5b34c0f4f7f2da7b5f49;XMPSOLVE_MONOMIAL_H;1.0;0.0;0.0;18.0
3.1.4;730ffea3e0acb62bdeea5b34c0f4f7f2da7b5f49;MPSOLVEWORKER_H;1.0;0.0;0.0;59.0
3.1.4;730ffea3e0acb62bdeea5b34c0f4f7f2da7b5f49;POLFILEEDITOR_H;1.0;0.0;0.0;77.0
3.1.4;730ffea3e0acb62bdeea5b34c0f4f7f2da7b5f49;POLFILEEDITORWINDOW_H;1.0;0.0;0.0;124.0
3.1.4;730ffea3e0acb62bdeea5b34c0f4f7f2da7b5f49;POLSYNTAXHIGHLIGHTER_H;1.0;0.0;0.0;23.0
3.1.4;730ffea3e0acb62bdeea5b34c0f4f7f2da7b5f49;POLYNOMIALSOLVER_H;1.0;0.0;0.0;115.0
3.1.4;730ffea3e0acb62bdeea5b34c0f4f7f2da7b5f49;QQUICKROOTSRENDERER_H;1.0;0.0;0.0;31.0
3.1.4;730ffea3e0acb62bdeea5b34c0f4f7f2da7b5f49;XMPSOLVE_QROOTSRENDERER_H;1.0;0.0;0.0;35.0
3.1.4;730ffea3e0acb62bdeea5b34c0f4f7f2da7b5f49;XMPSOLVE_ROOTSMODEL_H;1.0;0.0;0.0;55.0
3.1.4;730ffea3e0acb62bdeea5b34c0f4f7f2da7b5f49;xmpsolve_ROOTSRENDERER_H;1.0;0.0;0.0;64.0
3.1.5;5badd8fdbd30d548d132983373e9044d67d5892b;__cplusplus;27.0;0.0;0.0;616.0
3.1.5;5badd8fdbd30d548d132983373e9044d67d5892b;MPS_FORMAL_MONOMIAL_H_;1.0;0.0;1.0;139.0
3.1.5;5badd8fdbd30d548d132983373e9044d67d5892b;log2;3.0;0.0;0.0;6.0
3.1.5;5badd8fdbd30d548d132983373e9044d67d5892b;HAVE_FMEMOPEN;1.0;0.0;0.0;4.0
3.1.5;5badd8fdbd30d548d132983373e9044d67d5892b;MPS_CATCH_FPE;3.0;0.0;0.0;7.0
3.1.5;5badd8fdbd30d548d132983373e9044d67d5892b;HAVE_CONFIG_H;10.0;0.0;0.0;20.0
3.1.5;5badd8fdbd30d548d132983373e9044d67d5892b;DISABLE_DEBUG;30.0;0.0;3.0;154.0
3.1.5;5badd8fdbd30d548d132983373e9044d67d5892b;HAVE_STRNDUP;2.0;0.0;0.0;21.0
3.1.5;5badd8fdbd30d548d132983373e9044d67d5892b;RAND_SOURCE;1.0;0.0;0.0;2.0
3.1.5;5badd8fdbd30d548d132983373e9044d67d5892b;RAND_VAL;1.0;0.0;0.0;2.0
3.1.5;5badd8fdbd30d548d132983373e9044d67d5892b;mpz_swap;2.0;0.0;0.0;13.0
3.1.5;5badd8fdbd30d548d132983373e9044d67d5892b;mpz_tstbit;2.0;0.0;0.0;18.0
3.1.5;5badd8fdbd30d548d132983373e9044d67d5892b;mpq_swap;2.0;0.0;0.0;13.0
3.1.5;5badd8fdbd30d548d132983373e9044d67d5892b;mpq_out_str;2.0;0.0;0.0;10.0
3.1.5;5badd8fdbd30d548d132983373e9044d67d5892b;mpf_swap;2.0;0.0;0.0;13.0
3.1.5;5badd8fdbd30d548d132983373e9044d67d5892b;mpf_pow_ui;2.0;0.0;0.0;29.0
3.1.5;5badd8fdbd30d548d132983373e9044d67d5892b;MPS_USE_BUILTIN_COMPLEX;2.0;0.0;0.0;467.0
3.1.5;5badd8fdbd30d548d132983373e9044d67d5892b;NICE_DEBUG;3.0;0.0;1.0;151.0
3.1.5;5badd8fdbd30d548d132983373e9044d67d5892b;__GCC__;2.0;0.0;0.0;4.0
3.1.5;5badd8fdbd30d548d132983373e9044d67d5892b;getline;3.0;0.0;0.0;8.0
3.1.5;5badd8fdbd30d548d132983373e9044d67d5892b;SIZE_MAX;1.0;0.0;0.0;2.0
3.1.5;5badd8fdbd30d548d132983373e9044d67d5892b;SSIZE_MAX;1.0;0.0;0.0;2.0
3.1.5;5badd8fdbd30d548d132983373e9044d67d5892b;HAVE_GETLINE;1.0;0.0;4.0;112.0
3.1.5;5badd8fdbd30d548d132983373e9044d67d5892b;__WINDOWS;11.0;0.0;0.0;119.0
3.1.5;5badd8fdbd30d548d132983373e9044d67d5892b;HAVE_VSNPRINTF;1.0;0.0;0.0;2.0
3.1.5;5badd8fdbd30d548d132983373e9044d67d5892b;vsnprintf;1.0;0.0;1.0;4.0
3.1.5;5badd8fdbd30d548d132983373e9044d67d5892b;HAVE_UNISTD_H;1.0;0.0;0.0;2.0
3.1.5;5badd8fdbd30d548d132983373e9044d67d5892b;HAVE_SYSCONF;1.0;0.0;0.0;2.0
3.1.5;5badd8fdbd30d548d132983373e9044d67d5892b;HAVE_GRAPHICAL_DEBUGGER;12.0;0.0;2.0;193.0
3.1.5;5badd8fdbd30d548d132983373e9044d67d5892b;MAINWINDOW_H;1.0;0.0;0.0;109.0
3.1.5;5badd8fdbd30d548d132983373e9044d67d5892b;XMPSOLVE_QROOTSRENDERER_H;1.0;0.0;0.0;59.0
3.1.5;5badd8fdbd30d548d132983373e9044d67d5892b;xmpsolve_ROOTSRENDERER_H;1.0;0.0;0.0;95.0
3.1.6;05d0a30b18f54de5169685aae34f8b3b908da02d;_MPS_PRIVATE;5.0;0.0;1.0;152.0
3.1.6;05d0a30b18f54de5169685aae34f8b3b908da02d;MPS_CHEBYSHEV_H_;1.0;0.0;0.0;104.0
3.1.6;05d0a30b18f54de5169685aae34f8b3b908da02d;__cplusplus;27.0;0.0;0.0;616.0
3.1.6;05d0a30b18f54de5169685aae34f8b3b908da02d;#endif;3.0;0.0;0.0;206.0
3.1.6;05d0a30b18f54de5169685aae34f8b3b908da02d;__WINDOWS;11.0;0.0;0.0;119.0
3.1.6;05d0a30b18f54de5169685aae34f8b3b908da02d;MPS_DEBUG_H_;1.0;0.0;1.0;7.0
3.1.6;05d0a30b18f54de5169685aae34f8b3b908da02d;DISABLE_DEBUG;30.0;0.0;3.0;154.0
3.1.6;05d0a30b18f54de5169685aae34f8b3b908da02d;NICE_DEBUG;3.0;0.0;1.0;151.0
3.1.6;05d0a30b18f54de5169685aae34f8b3b908da02d;MPS_DEBUG;1.0;0.0;0.0;2.0
3.1.6;05d0a30b18f54de5169685aae34f8b3b908da02d;__MPS_DEBUG;1.0;0.0;0.0;2.0
3.1.6;05d0a30b18f54de5169685aae34f8b3b908da02d;__UNDEF_CPLUSPLUS;1.0;0.0;0.0;2.0
3.1.6;05d0a30b18f54de5169685aae34f8b3b908da02d;MPS_INTERFACE_H_;1.0;0.0;3.0;221.0
3.1.6;05d0a30b18f54de5169685aae34f8b3b908da02d;__LINK_H__;1.0;0.0;2.0;70.0
3.1.6;05d0a30b18f54de5169685aae34f8b3b908da02d;MPS_MATRIX_H_;1.0;0.0;0.0;6.0
3.1.6;05d0a30b18f54de5169685aae34f8b3b908da02d;MPS_MONOMIAL_MATRIX_POLY_H_;1.0;0.0;3.0;226.0
3.1.6;05d0a30b18f54de5169685aae34f8b3b908da02d;HAVE_CONFIG_H;10.0;0.0;0.0;20.0
3.1.6;05d0a30b18f54de5169685aae34f8b3b908da02d;__MPS_MATLAB_MODE;1.0;0.0;0.0;2.0
3.1.6;05d0a30b18f54de5169685aae34f8b3b908da02d;MPS_PUBLISH_PRIVATE_METHODS;1.0;0.0;0.0;2.0
3.1.6;05d0a30b18f54de5169685aae34f8b3b908da02d;HAVE_HIDDEN_VISIBILITY_ATTRIBUTE;1.0;0.0;0.0;5.0
3.1.6;05d0a30b18f54de5169685aae34f8b3b908da02d;MPS_CORE_H_;1.0;0.0;4.0;17.0
3.1.6;05d0a30b18f54de5169685aae34f8b3b908da02d;getline;3.0;0.0;0.0;8.0
3.1.6;05d0a30b18f54de5169685aae34f8b3b908da02d;MPS_MT_TYPES_;1.0;0.0;1.0;36.0
3.1.6;05d0a30b18f54de5169685aae34f8b3b908da02d;MPS_NROOTS_POLYNOMIAL_H_;1.0;0.0;1.0;38.0
3.1.6;05d0a30b18f54de5169685aae34f8b3b908da02d;MPS_PARSER_H_;1.0;0.0;0.0;15.0
3.1.6;05d0a30b18f54de5169685aae34f8b3b908da02d;MPS_POLYNOMIAL_H_;1.0;0.0;4.0;383.0
3.1.6;05d0a30b18f54de5169685aae34f8b3b908da02d;MPS_ABERTH_H_;1.0;0.0;0.0;17.0
3.1.6;05d0a30b18f54de5169685aae34f8b3b908da02d;MPS_ALGORITHMS_H_;1.0;0.0;0.0;15.0
3.1.6;05d0a30b18f54de5169685aae34f8b3b908da02d;MPS_CLUSTER_H_;1.0;0.0;0.0;126.0
3.1.6;05d0a30b18f54de5169685aae34f8b3b908da02d;MPS_CONVEX_H_;1.0;0.0;0.0;58.0
3.1.6;05d0a30b18f54de5169685aae34f8b3b908da02d;MPS_DATA_H_;1.0;0.0;0.0;23.0
3.1.6;05d0a30b18f54de5169685aae34f8b3b908da02d;MPS_FORMAL_MONOMIAL_H_;1.0;0.0;1.0;139.0
3.1.6;05d0a30b18f54de5169685aae34f8b3b908da02d;MPS_FORMAL_POLYNOMIAL_H_;1.0;0.0;1.0;146.0
3.1.6;05d0a30b18f54de5169685aae34f8b3b908da02d;MPS_HESSENBERG_DETERMINANT_H_;1.0;0.0;0.0;24.0
3.1.6;05d0a30b18f54de5169685aae34f8b3b908da02d;MPS_HORNER_H_;1.0;0.0;0.0;25.0
3.1.6;05d0a30b18f54de5169685aae34f8b3b908da02d;MPS_IMPROVE_H_;1.0;0.0;0.0;11.0
3.1.6;05d0a30b18f54de5169685aae34f8b3b908da02d;MPS_INPUT_BUFFER_H_;1.0;0.0;0.0;91.0
3.1.6;05d0a30b18f54de5169685aae34f8b3b908da02d;MPS_INPUT_OUTPUT_H_;1.0;0.0;0.0;31.0
3.1.6;05d0a30b18f54de5169685aae34f8b3b908da02d;MPS_JACOBI_ABERTH_H_;1.0;0.0;0.0;13.0
3.1.6;05d0a30b18f54de5169685aae34f8b3b908da02d;MPS_LIST_H_;1.0;0.0;0.0;73.0
3.1.6;05d0a30b18f54de5169685aae34f8b3b908da02d;MPS_MANDELBROT_USER_H_;1.0;0.0;0.0;14.0
3.1.6;05d0a30b18f54de5169685aae34f8b3b908da02d;MPS_NEWTON_H_;1.0;0.0;0.0;14.0
3.1.6;05d0a30b18f54de5169685aae34f8b3b908da02d;MPS_OPTIONS_H_;1.0;0.0;0.0;222.0
3.1.6;05d0a30b18f54de5169685aae34f8b3b908da02d;MPS_RADII_H_;1.0;0.0;0.0;17.0
3.1.6;05d0a30b18f54de5169685aae34f8b3b908da02d;MPS_SECULAR_EVALUATION_H_;1.0;0.0;0.0;20.0
3.1.6;05d0a30b18f54de5169685aae34f8b3b908da02d;MPS_SECULAR_REGENERATION_H_;1.0;0.0;0.0;10.0
3.1.6;05d0a30b18f54de5169685aae34f8b3b908da02d;MPS_SOLVE_H_;1.0;0.0;0.0;34.0
3.1.6;05d0a30b18f54de5169685aae34f8b3b908da02d;MPS_SORT_H_;1.0;0.0;0.0;11.0
3.1.6;05d0a30b18f54de5169685aae34f8b3b908da02d;MPS_STARTING_CONFIGURATION_H_;1.0;0.0;0.0;63.0
3.1.6;05d0a30b18f54de5169685aae34f8b3b908da02d;MPS_STARTING_H_;1.0;0.0;0.0;34.0
3.1.6;05d0a30b18f54de5169685aae34f8b3b908da02d;MPS_ABSTRACT_INPUT_STREAM_H_;1.0;0.0;1.0;75.0
3.1.6;05d0a30b18f54de5169685aae34f8b3b908da02d;MPS_FILE_INPUT_STREAM_H_;1.0;0.0;1.0;85.0
3.1.6;05d0a30b18f54de5169685aae34f8b3b908da02d;MPS_MEMORY_FILE_STREAM_H_;1.0;0.0;1.0;93.0
3.1.6;05d0a30b18f54de5169685aae34f8b3b908da02d;MPS_THREADING_H_;1.0;0.0;0.0;399.0
3.1.6;05d0a30b18f54de5169685aae34f8b3b908da02d;MPS_TOUCH_H_;1.0;0.0;0.0;24.0
3.1.6;05d0a30b18f54de5169685aae34f8b3b908da02d;HAVE_STRNDUP;2.0;0.0;0.0;21.0
3.1.6;05d0a30b18f54de5169685aae34f8b3b908da02d;_MPS_UTILS_H;1.0;0.0;1.0;23.0
3.1.6;05d0a30b18f54de5169685aae34f8b3b908da02d;MPS_REGENERATION_DRIVER_H_;1.0;0.0;0.0;47.0
3.1.6;05d0a30b18f54de5169685aae34f8b3b908da02d;__MPS_NOT_DEFINE_BOOL;1.0;0.0;0.0;3.0
3.1.6;05d0a30b18f54de5169685aae34f8b3b908da02d;MPS_TYPES_H_;1.0;0.0;1.0;15.0
3.1.6;05d0a30b18f54de5169685aae34f8b3b908da02d;isnan;1.0;0.0;0.0;17.0
3.1.6;05d0a30b18f54de5169685aae34f8b3b908da02d;isinf;1.0;0.0;0.0;17.0
3.1.6;05d0a30b18f54de5169685aae34f8b3b908da02d;log2;3.0;0.0;0.0;6.0
3.1.6;05d0a30b18f54de5169685aae34f8b3b908da02d;HAVE_FMEMOPEN;1.0;0.0;0.0;4.0
3.1.6;05d0a30b18f54de5169685aae34f8b3b908da02d;MPS_CATCH_FPE;3.0;0.0;0.0;7.0
3.1.6;05d0a30b18f54de5169685aae34f8b3b908da02d;RAND_SOURCE;1.0;0.0;0.0;2.0
3.1.6;05d0a30b18f54de5169685aae34f8b3b908da02d;RAND_VAL;1.0;0.0;0.0;2.0
3.1.6;05d0a30b18f54de5169685aae34f8b3b908da02d;mpz_swap;2.0;0.0;0.0;13.0
3.1.6;05d0a30b18f54de5169685aae34f8b3b908da02d;mpz_tstbit;2.0;0.0;0.0;18.0
3.1.6;05d0a30b18f54de5169685aae34f8b3b908da02d;mpq_swap;2.0;0.0;0.0;13.0
3.1.6;05d0a30b18f54de5169685aae34f8b3b908da02d;mpq_out_str;2.0;0.0;0.0;10.0
3.1.6;05d0a30b18f54de5169685aae34f8b3b908da02d;mpf_swap;2.0;0.0;0.0;13.0
3.1.6;05d0a30b18f54de5169685aae34f8b3b908da02d;mpf_pow_ui;2.0;0.0;0.0;29.0
3.1.6;05d0a30b18f54de5169685aae34f8b3b908da02d;MPS_USE_BUILTIN_COMPLEX;2.0;0.0;0.0;467.0
3.1.6;05d0a30b18f54de5169685aae34f8b3b908da02d;__GCC__;2.0;0.0;0.0;4.0
3.1.6;05d0a30b18f54de5169685aae34f8b3b908da02d;SIZE_MAX;1.0;0.0;0.0;2.0
3.1.6;05d0a30b18f54de5169685aae34f8b3b908da02d;SSIZE_MAX;1.0;0.0;0.0;2.0
3.1.6;05d0a30b18f54de5169685aae34f8b3b908da02d;HAVE_GETLINE;1.0;0.0;4.0;112.0
3.1.6;05d0a30b18f54de5169685aae34f8b3b908da02d;HAVE_VSNPRINTF;1.0;0.0;0.0;2.0
3.1.6;05d0a30b18f54de5169685aae34f8b3b908da02d;vsnprintf;1.0;0.0;1.0;4.0
3.1.6;05d0a30b18f54de5169685aae34f8b3b908da02d;HAVE_UNISTD_H;1.0;0.0;0.0;2.0
3.1.6;05d0a30b18f54de5169685aae34f8b3b908da02d;HAVE_SYSCONF;1.0;0.0;0.0;2.0
3.1.6;05d0a30b18f54de5169685aae34f8b3b908da02d;HAVE_GRAPHICAL_DEBUGGER;12.0;0.0;2.0;193.0
3.1.7;cf17faf57d620fd6938da8647e96866e039905d6;_MPS_PRIVATE;5.0;0.0;1.0;152.0
3.1.7;cf17faf57d620fd6938da8647e96866e039905d6;MPS_CHEBYSHEV_H_;1.0;0.0;0.0;104.0
3.1.7;cf17faf57d620fd6938da8647e96866e039905d6;__cplusplus;27.0;0.0;0.0;616.0
3.1.7;cf17faf57d620fd6938da8647e96866e039905d6;#endif;3.0;0.0;0.0;206.0
3.1.7;cf17faf57d620fd6938da8647e96866e039905d6;__WINDOWS;11.0;0.0;0.0;119.0
3.1.7;cf17faf57d620fd6938da8647e96866e039905d6;MPS_DEBUG_H_;1.0;0.0;1.0;7.0
3.1.7;cf17faf57d620fd6938da8647e96866e039905d6;DISABLE_DEBUG;30.0;0.0;3.0;154.0
3.1.7;cf17faf57d620fd6938da8647e96866e039905d6;NICE_DEBUG;3.0;0.0;1.0;151.0
3.1.7;cf17faf57d620fd6938da8647e96866e039905d6;MPS_DEBUG;1.0;0.0;0.0;2.0
3.1.7;cf17faf57d620fd6938da8647e96866e039905d6;__MPS_DEBUG;1.0;0.0;0.0;2.0
3.1.7;cf17faf57d620fd6938da8647e96866e039905d6;__UNDEF_CPLUSPLUS;1.0;0.0;0.0;2.0
3.1.7;cf17faf57d620fd6938da8647e96866e039905d6;MPS_INTERFACE_H_;1.0;0.0;3.0;221.0
3.1.7;cf17faf57d620fd6938da8647e96866e039905d6;MPS_MATRIX_H_;1.0;0.0;0.0;6.0
3.1.7;cf17faf57d620fd6938da8647e96866e039905d6;MPS_MONOMIAL_MATRIX_POLY_H_;1.0;0.0;3.0;226.0
3.1.7;cf17faf57d620fd6938da8647e96866e039905d6;HAVE_CONFIG_H;10.0;0.0;0.0;20.0
3.1.7;cf17faf57d620fd6938da8647e96866e039905d6;__MPS_MATLAB_MODE;1.0;0.0;0.0;2.0
3.1.7;cf17faf57d620fd6938da8647e96866e039905d6;MPS_PUBLISH_PRIVATE_METHODS;1.0;0.0;0.0;2.0
3.1.7;cf17faf57d620fd6938da8647e96866e039905d6;HAVE_HIDDEN_VISIBILITY_ATTRIBUTE;1.0;0.0;0.0;5.0
3.1.7;cf17faf57d620fd6938da8647e96866e039905d6;MPS_CORE_H_;1.0;0.0;4.0;17.0
3.1.7;cf17faf57d620fd6938da8647e96866e039905d6;getline;3.0;0.0;0.0;8.0
3.1.7;cf17faf57d620fd6938da8647e96866e039905d6;MPS_MT_TYPES_;1.0;0.0;1.0;36.0
3.1.7;cf17faf57d620fd6938da8647e96866e039905d6;MPS_NROOTS_POLYNOMIAL_H_;1.0;0.0;1.0;38.0
3.1.7;cf17faf57d620fd6938da8647e96866e039905d6;MPS_PARSER_H_;1.0;0.0;0.0;15.0
3.1.7;cf17faf57d620fd6938da8647e96866e039905d6;MPS_POLYNOMIAL_H_;1.0;0.0;4.0;383.0
3.1.7;cf17faf57d620fd6938da8647e96866e039905d6;MPS_ABERTH_H_;1.0;0.0;0.0;17.0
3.1.7;cf17faf57d620fd6938da8647e96866e039905d6;MPS_ALGORITHMS_H_;1.0;0.0;0.0;15.0
3.1.7;cf17faf57d620fd6938da8647e96866e039905d6;MPS_CLUSTER_H_;1.0;0.0;0.0;126.0
3.1.7;cf17faf57d620fd6938da8647e96866e039905d6;MPS_CONVEX_H_;1.0;0.0;0.0;58.0
3.1.7;cf17faf57d620fd6938da8647e96866e039905d6;MPS_DATA_H_;1.0;0.0;0.0;23.0
3.1.7;cf17faf57d620fd6938da8647e96866e039905d6;MPS_FORMAL_MONOMIAL_H_;1.0;0.0;1.0;139.0
3.1.7;cf17faf57d620fd6938da8647e96866e039905d6;MPS_FORMAL_POLYNOMIAL_H_;1.0;0.0;1.0;146.0
3.1.7;cf17faf57d620fd6938da8647e96866e039905d6;MPS_HESSENBERG_DETERMINANT_H_;1.0;0.0;0.0;24.0
3.1.7;cf17faf57d620fd6938da8647e96866e039905d6;MPS_HORNER_H_;1.0;0.0;0.0;25.0
3.1.7;cf17faf57d620fd6938da8647e96866e039905d6;MPS_IMPROVE_H_;1.0;0.0;0.0;11.0
3.1.7;cf17faf57d620fd6938da8647e96866e039905d6;MPS_INPUT_BUFFER_H_;1.0;0.0;0.0;91.0
3.1.7;cf17faf57d620fd6938da8647e96866e039905d6;MPS_INPUT_OUTPUT_H_;1.0;0.0;0.0;31.0
3.1.7;cf17faf57d620fd6938da8647e96866e039905d6;MPS_JACOBI_ABERTH_H_;1.0;0.0;0.0;13.0
3.1.7;cf17faf57d620fd6938da8647e96866e039905d6;MPS_LIST_H_;1.0;0.0;0.0;73.0
3.1.7;cf17faf57d620fd6938da8647e96866e039905d6;MPS_MANDELBROT_USER_H_;1.0;0.0;0.0;14.0
3.1.7;cf17faf57d620fd6938da8647e96866e039905d6;MPS_NEWTON_H_;1.0;0.0;0.0;14.0
3.1.7;cf17faf57d620fd6938da8647e96866e039905d6;MPS_OPTIONS_H_;1.0;0.0;0.0;222.0
3.1.7;cf17faf57d620fd6938da8647e96866e039905d6;MPS_RADII_H_;1.0;0.0;0.0;17.0
3.1.7;cf17faf57d620fd6938da8647e96866e039905d6;MPS_SECULAR_EVALUATION_H_;1.0;0.0;0.0;20.0
3.1.7;cf17faf57d620fd6938da8647e96866e039905d6;MPS_SECULAR_REGENERATION_H_;1.0;0.0;0.0;10.0
3.1.7;cf17faf57d620fd6938da8647e96866e039905d6;MPS_SOLVE_H_;1.0;0.0;0.0;34.0
3.1.7;cf17faf57d620fd6938da8647e96866e039905d6;MPS_SORT_H_;1.0;0.0;0.0;11.0
3.1.7;cf17faf57d620fd6938da8647e96866e039905d6;MPS_STARTING_CONFIGURATION_H_;1.0;0.0;0.0;63.0
3.1.7;cf17faf57d620fd6938da8647e96866e039905d6;MPS_STARTING_H_;1.0;0.0;0.0;34.0
3.1.7;cf17faf57d620fd6938da8647e96866e039905d6;MPS_ABSTRACT_INPUT_STREAM_H_;1.0;0.0;1.0;75.0
3.1.7;cf17faf57d620fd6938da8647e96866e039905d6;MPS_FILE_INPUT_STREAM_H_;1.0;0.0;1.0;85.0
3.1.7;cf17faf57d620fd6938da8647e96866e039905d6;MPS_MEMORY_FILE_STREAM_H_;1.0;0.0;1.0;93.0
3.1.7;cf17faf57d620fd6938da8647e96866e039905d6;MPS_THREADING_H_;1.0;0.0;0.0;399.0
3.1.7;cf17faf57d620fd6938da8647e96866e039905d6;MPS_TOUCH_H_;1.0;0.0;0.0;24.0
3.1.7;cf17faf57d620fd6938da8647e96866e039905d6;HAVE_STRNDUP;2.0;0.0;0.0;21.0
3.1.7;cf17faf57d620fd6938da8647e96866e039905d6;_MPS_UTILS_H;1.0;0.0;1.0;23.0
3.1.7;cf17faf57d620fd6938da8647e96866e039905d6;MPS_REGENERATION_DRIVER_H_;1.0;0.0;0.0;47.0
3.1.7;cf17faf57d620fd6938da8647e96866e039905d6;log2;3.0;0.0;0.0;6.0
3.1.7;cf17faf57d620fd6938da8647e96866e039905d6;HAVE_FMEMOPEN;1.0;0.0;0.0;4.0
3.1.7;cf17faf57d620fd6938da8647e96866e039905d6;MPS_CATCH_FPE;3.0;0.0;0.0;7.0
3.1.7;cf17faf57d620fd6938da8647e96866e039905d6;RAND_SOURCE;1.0;0.0;0.0;2.0
3.1.7;cf17faf57d620fd6938da8647e96866e039905d6;RAND_VAL;1.0;0.0;0.0;2.0
3.1.7;cf17faf57d620fd6938da8647e96866e039905d6;mpz_swap;2.0;0.0;0.0;13.0
3.1.7;cf17faf57d620fd6938da8647e96866e039905d6;mpz_tstbit;2.0;0.0;0.0;18.0
3.1.7;cf17faf57d620fd6938da8647e96866e039905d6;mpq_swap;2.0;0.0;0.0;13.0
3.1.7;cf17faf57d620fd6938da8647e96866e039905d6;mpq_out_str;2.0;0.0;0.0;10.0
3.1.7;cf17faf57d620fd6938da8647e96866e039905d6;mpf_swap;2.0;0.0;0.0;13.0
3.1.7;cf17faf57d620fd6938da8647e96866e039905d6;mpf_pow_ui;2.0;0.0;0.0;29.0
3.1.7;cf17faf57d620fd6938da8647e96866e039905d6;MPS_USE_BUILTIN_COMPLEX;2.0;0.0;0.0;467.0
3.1.7;cf17faf57d620fd6938da8647e96866e039905d6;__GCC__;2.0;0.0;0.0;4.0
3.1.7;cf17faf57d620fd6938da8647e96866e039905d6;SIZE_MAX;1.0;0.0;0.0;2.0
3.1.7;cf17faf57d620fd6938da8647e96866e039905d6;SSIZE_MAX;1.0;0.0;0.0;2.0
3.1.7;cf17faf57d620fd6938da8647e96866e039905d6;HAVE_GETLINE;1.0;0.0;4.0;112.0
3.1.7;cf17faf57d620fd6938da8647e96866e039905d6;HAVE_VSNPRINTF;1.0;0.0;0.0;2.0
3.1.7;cf17faf57d620fd6938da8647e96866e039905d6;vsnprintf;1.0;0.0;1.0;4.0
3.1.7;cf17faf57d620fd6938da8647e96866e039905d6;HAVE_UNISTD_H;1.0;0.0;0.0;2.0
3.1.7;cf17faf57d620fd6938da8647e96866e039905d6;HAVE_SYSCONF;1.0;0.0;0.0;2.0
3.1.7;cf17faf57d620fd6938da8647e96866e039905d6;HAVE_GRAPHICAL_DEBUGGER;12.0;0.0;2.0;193.0
