3.0.1,9c48ff10848516f2233d68c49f111945525d34c2,7c782b24111f252d1e42bc225e197f95fb0e3e90
3.1.0,7c782b24111f252d1e42bc225e197f95fb0e3e90,ab1e66e6877dd83980ba3fb72dd922d03ec37487
3.1.1,ab1e66e6877dd83980ba3fb72dd922d03ec37487,040f8b2b8f78063706962ab927253396364a33b3
3.1.2,040f8b2b8f78063706962ab927253396364a33b3,2f3da2c9ecdab058408be009a5236b17a23dcd1b
3.1.4,2f3da2c9ecdab058408be009a5236b17a23dcd1b,730ffea3e0acb62bdeea5b34c0f4f7f2da7b5f49
3.1.5,730ffea3e0acb62bdeea5b34c0f4f7f2da7b5f49,5badd8fdbd30d548d132983373e9044d67d5892b
3.1.6,5badd8fdbd30d548d132983373e9044d67d5892b,05d0a30b18f54de5169685aae34f8b3b908da02d
3.1.7,05d0a30b18f54de5169685aae34f8b3b908da02d,cf17faf57d620fd6938da8647e96866e039905d6
