1_0_0,4b1c8e3438905b13b8173a58e7f98e32dc6cca42,8ebe2eaef15fc7724d67b953e7886f5d3db388ea
2_0_0,8ebe2eaef15fc7724d67b953e7886f5d3db388ea,502d035ad7bbaf807aa380789d8d89b613571b3c
3_0_0,502d035ad7bbaf807aa380789d8d89b613571b3c,02324c95e3107050fd216616a042273bbc9cf042
4_0_0,02324c95e3107050fd216616a042273bbc9cf042,8de89f8960d6df4585e73c2555ebc98538181276
5_0_0,8de89f8960d6df4585e73c2555ebc98538181276,6c68149d3484a9f6f91454cd61982479022cb443
6_0_0,6c68149d3484a9f6f91454cd61982479022cb443,f9bb25b2d7a28ea9d231aecd8bdd1e324576e734
7_0_0,f9bb25b2d7a28ea9d231aecd8bdd1e324576e734,85bb8f19d5b3eacc74b85fbf8e6569f6a285aea4
